-- Merging decision tree log ---
provider#org.apache.cordova.camera.FileProvider
INJECTED from D:\Pro\tcs2_gps\platforms\android\app\src\main\AndroidManifest.xml:13:9-15:20
	android:grantUriPermissions
		ADDED from D:\Pro\tcs2_gps\platforms\android\app\src\main\AndroidManifest.xml:13:92-126
	android:authorities
		INJECTED from D:\Pro\tcs2_gps\platforms\android\app\src\main\AndroidManifest.xml
		ADDED from D:\Pro\tcs2_gps\platforms\android\app\src\main\AndroidManifest.xml:13:19-66
	android:exported
		ADDED from D:\Pro\tcs2_gps\platforms\android\app\src\main\AndroidManifest.xml:13:67-91
	android:name
		ADDED from D:\Pro\tcs2_gps\platforms\android\app\src\main\AndroidManifest.xml:13:127-180
meta-data#com.google.android.geo.API_KEY
INJECTED from D:\Pro\tcs2_gps\platforms\android\app\src\main\AndroidManifest.xml:16:9-115
	android:value
		INJECTED from D:\Pro\tcs2_gps\platforms\android\app\src\main\AndroidManifest.xml
		ADDED from D:\Pro\tcs2_gps\platforms\android\app\src\main\AndroidManifest.xml:16:66-112
	android:name
		ADDED from D:\Pro\tcs2_gps\platforms\android\app\src\main\AndroidManifest.xml:16:20-65
provider#nl.xservices.plugins.FileProvider
INJECTED from D:\Pro\tcs2_gps\platforms\android\app\src\main\AndroidManifest.xml:24:9-26:20
	android:grantUriPermissions
		ADDED from D:\Pro\tcs2_gps\platforms\android\app\src\main\AndroidManifest.xml:24:100-134
	android:authorities
		INJECTED from D:\Pro\tcs2_gps\platforms\android\app\src\main\AndroidManifest.xml
		ADDED from D:\Pro\tcs2_gps\platforms\android\app\src\main\AndroidManifest.xml:24:19-74
	android:exported
		ADDED from D:\Pro\tcs2_gps\platforms\android\app\src\main\AndroidManifest.xml:24:75-99
	android:name
		ADDED from D:\Pro\tcs2_gps\platforms\android\app\src\main\AndroidManifest.xml:24:135-183
activity#com.adobe.phonegap.push.PushHandlerActivity
INJECTED from D:\Pro\tcs2_gps\platforms\android\app\src\main\AndroidManifest.xml:27:9-173
	android:exported
		ADDED from D:\Pro\tcs2_gps\platforms\android\app\src\main\AndroidManifest.xml:27:19-42
	android:permission
		INJECTED from D:\Pro\tcs2_gps\platforms\android\app\src\main\AndroidManifest.xml
		ADDED from D:\Pro\tcs2_gps\platforms\android\app\src\main\AndroidManifest.xml:27:102-170
	android:name
		ADDED from D:\Pro\tcs2_gps\platforms\android\app\src\main\AndroidManifest.xml:27:43-101
manifest
ADDED from D:\Pro\tcs2_gps\platforms\android\app\src\main\AndroidManifest.xml:2:1-57:12
INJECTED from D:\Pro\tcs2_gps\platforms\android\app\src\main\AndroidManifest.xml:2:1-57:12
INJECTED from D:\Pro\tcs2_gps\platforms\android\app\src\main\AndroidManifest.xml:2:1-57:12
INJECTED from D:\Pro\tcs2_gps\platforms\android\app\src\main\AndroidManifest.xml:2:1-57:12
MERGED from [:tbxml-android:] C:\Users\Lenovo\.gradle\caches\transforms-1\files-1.1\tbxml-android.aar\5adca22afad1d5939e15045e619187ad\AndroidManifest.xml:2:1-11:12
MERGED from [:CordovaLib] D:\Pro\tcs2_gps\platforms\android\CordovaLib\build\intermediates\library_manifest\release\AndroidManifest.xml:20:1-27:12
MERGED from [com.razorpay:checkout:1.5.12] C:\Users\Lenovo\.gradle\caches\transforms-1\files-1.1\checkout-1.5.12.aar\2a8d789d1e8cde9fdf1b809734cd43ae\AndroidManifest.xml:2:1-32:12
MERGED from [com.android.support:support-v13:27.1.1] C:\Users\Lenovo\.gradle\caches\transforms-1\files-1.1\support-v13-27.1.1.aar\a2554c1bc8bccc4b7228587394fa33ce\AndroidManifest.xml:17:1-22:12
MERGED from [com.google.android.gms:play-services-maps:15.0.1] C:\Users\Lenovo\.gradle\caches\transforms-1\files-1.1\play-services-maps-15.0.1.aar\6faadf18ff9437b32c7c3f490319e665\AndroidManifest.xml:17:1-32:12
MERGED from [com.google.android.gms:play-services-location:15.0.1] C:\Users\Lenovo\.gradle\caches\transforms-1\files-1.1\play-services-location-15.0.1.aar\09fa3c518b1cb26279f0e3670c54da17\AndroidManifest.xml:2:1-9:12
MERGED from [com.google.firebase:firebase-messaging:15.0.0] C:\Users\Lenovo\.gradle\caches\transforms-1\files-1.1\firebase-messaging-15.0.0.aar\943c520d76a1b4e595bb07983e79cd07\AndroidManifest.xml:17:1-37:12
MERGED from [com.google.android.gms:play-services-base:15.0.1] C:\Users\Lenovo\.gradle\caches\transforms-1\files-1.1\play-services-base-15.0.1.aar\a4b7a00f60524d3871f1f71b3582e656\AndroidManifest.xml:17:1-29:12
MERGED from [com.google.android.gms:play-services-places-placereport:15.0.1] C:\Users\Lenovo\.gradle\caches\transforms-1\files-1.1\play-services-places-placereport-15.0.1.aar\d8220c5177f8c69691b868b42d8ff6f5\AndroidManifest.xml:17:1-24:12
MERGED from [com.google.firebase:firebase-analytics-impl:15.0.0] C:\Users\Lenovo\.gradle\caches\transforms-1\files-1.1\firebase-analytics-impl-15.0.0.aar\be8b44e342253ef9b7e941d45e5a4453\AndroidManifest.xml:17:1-41:12
MERGED from [com.google.firebase:firebase-iid:15.0.0] C:\Users\Lenovo\.gradle\caches\transforms-1\files-1.1\firebase-iid-15.0.0.aar\4116caee5628817e271dc2644fb74ecd\AndroidManifest.xml:17:1-59:12
MERGED from [com.google.firebase:firebase-common:15.0.1] C:\Users\Lenovo\.gradle\caches\transforms-1\files-1.1\firebase-common-15.0.1.aar\f1652ff85af7aae577d8120aa79369b4\AndroidManifest.xml:2:1-15:12
MERGED from [com.google.android.gms:play-services-tasks:15.0.1] C:\Users\Lenovo\.gradle\caches\transforms-1\files-1.1\play-services-tasks-15.0.1.aar\0a3649fde75bb822c8650ff03bf09510\AndroidManifest.xml:2:1-9:12
MERGED from [com.google.android.gms:play-services-ads-identifier:15.0.1] C:\Users\Lenovo\.gradle\caches\transforms-1\files-1.1\play-services-ads-identifier-15.0.1.aar\ca2a32ccb1b7e2a5c11532cf333e99ae\AndroidManifest.xml:17:1-24:12
MERGED from [com.google.android.gms:play-services-stats:15.0.1] C:\Users\Lenovo\.gradle\caches\transforms-1\files-1.1\play-services-stats-15.0.1.aar\37b54d4a0b2cb2f268e575f4a070eaf5\AndroidManifest.xml:2:1-9:12
MERGED from [com.google.android.gms:play-services-basement:15.0.1] C:\Users\Lenovo\.gradle\caches\transforms-1\files-1.1\play-services-basement-15.0.1.aar\e591563713b041dc86dacbb52f70753a\AndroidManifest.xml:17:1-28:12
MERGED from [com.android.support:support-v4:27.1.1] C:\Users\Lenovo\.gradle\caches\transforms-1\files-1.1\support-v4-27.1.1.aar\2e74539778f677c57cd8ac813de6b92a\AndroidManifest.xml:17:1-22:12
MERGED from [com.android.support:support-fragment:27.1.1] C:\Users\Lenovo\.gradle\caches\transforms-1\files-1.1\support-fragment-27.1.1.aar\b8f874aa3ce3d4290d6fffa9578937f7\AndroidManifest.xml:17:1-22:12
MERGED from [com.android.support:support-core-ui:27.1.1] C:\Users\Lenovo\.gradle\caches\transforms-1\files-1.1\support-core-ui-27.1.1.aar\18e962e33041957c3ae6db2a065ac64a\AndroidManifest.xml:17:1-22:12
MERGED from [com.android.support:support-core-utils:27.1.1] C:\Users\Lenovo\.gradle\caches\transforms-1\files-1.1\support-core-utils-27.1.1.aar\3298c78098b48a5a607e907813cb787f\AndroidManifest.xml:17:1-22:12
MERGED from [com.android.support:support-media-compat:27.1.1] C:\Users\Lenovo\.gradle\caches\transforms-1\files-1.1\support-media-compat-27.1.1.aar\f969046b8b5510c73e186c6afedc9cf1\AndroidManifest.xml:17:1-22:12
MERGED from [com.android.support:support-compat:27.1.1] C:\Users\Lenovo\.gradle\caches\transforms-1\files-1.1\support-compat-27.1.1.aar\22d0284d68800cedc4ce8aa7e0876ebd\AndroidManifest.xml:17:1-22:12
MERGED from [me.leolin:ShortcutBadger:1.1.17] C:\Users\Lenovo\.gradle\caches\transforms-1\files-1.1\ShortcutBadger-1.1.17.aar\c3224c1c400986009de1cb09c58fc57e\AndroidManifest.xml:2:1-52:12
MERGED from [com.android.support:multidex:1.0.2] C:\Users\Lenovo\.gradle\caches\transforms-1\files-1.1\multidex-1.0.2.aar\a8b2308bc26fe7599e62ca6470b74da3\AndroidManifest.xml:17:1-22:12
MERGED from [com.google.android.gms:play-services-measurement-base:15.0.0] C:\Users\Lenovo\.gradle\caches\transforms-1\files-1.1\play-services-measurement-base-15.0.0.aar\fd1e3a3d923bad1f0edc4ddc4d764424\AndroidManifest.xml:17:1-24:12
MERGED from [android.arch.lifecycle:runtime:1.1.0] C:\Users\Lenovo\.gradle\caches\transforms-1\files-1.1\runtime-1.1.0.aar\909be2f0e2414599bfb397d30888b529\AndroidManifest.xml:17:1-22:12
MERGED from [android.arch.lifecycle:livedata-core:1.1.0] C:\Users\Lenovo\.gradle\caches\transforms-1\files-1.1\livedata-core-1.1.0.aar\e930ff687273218a5748885d798425cc\AndroidManifest.xml:17:1-22:12
MERGED from [android.arch.lifecycle:viewmodel:1.1.0] C:\Users\Lenovo\.gradle\caches\transforms-1\files-1.1\viewmodel-1.1.0.aar\1d6d08389e5aaa4f8b08d092661cd65d\AndroidManifest.xml:17:1-22:12
MERGED from [android.arch.core:runtime:1.1.0] C:\Users\Lenovo\.gradle\caches\transforms-1\files-1.1\runtime-1.1.0.aar\71ed0252ea6f28c9783bd9ce61696f3c\AndroidManifest.xml:17:1-22:12
INJECTED from D:\Pro\tcs2_gps\platforms\android\app\src\main\AndroidManifest.xml:2:1-57:12
INJECTED from D:\Pro\tcs2_gps\platforms\android\app\src\main\AndroidManifest.xml:2:1-57:12
INJECTED from D:\Pro\tcs2_gps\platforms\android\app\src\main\AndroidManifest.xml:2:1-57:12
	package
		ADDED from D:\Pro\tcs2_gps\platforms\android\app\src\main\AndroidManifest.xml:2:100-123
		INJECTED from D:\Pro\tcs2_gps\platforms\android\app\src\main\AndroidManifest.xml
		INJECTED from D:\Pro\tcs2_gps\platforms\android\app\src\main\AndroidManifest.xml
	android:versionName
		ADDED from D:\Pro\tcs2_gps\platforms\android\app\src\main\AndroidManifest.xml:2:72-99
		INJECTED from D:\Pro\tcs2_gps\platforms\android\app\src\main\AndroidManifest.xml
		INJECTED from D:\Pro\tcs2_gps\platforms\android\app\src\main\AndroidManifest.xml
	android:hardwareAccelerated
		ADDED from D:\Pro\tcs2_gps\platforms\android\app\src\main\AndroidManifest.xml:2:11-45
	xmlns:android
		ADDED from D:\Pro\tcs2_gps\platforms\android\app\src\main\AndroidManifest.xml:2:124-182
	android:versionCode
		ADDED from D:\Pro\tcs2_gps\platforms\android\app\src\main\AndroidManifest.xml:2:46-71
		INJECTED from D:\Pro\tcs2_gps\platforms\android\app\src\main\AndroidManifest.xml
		INJECTED from D:\Pro\tcs2_gps\platforms\android\app\src\main\AndroidManifest.xml
supports-screens
ADDED from D:\Pro\tcs2_gps\platforms\android\app\src\main\AndroidManifest.xml:3:5-191
	android:largeScreens
		ADDED from D:\Pro\tcs2_gps\platforms\android\app\src\main\AndroidManifest.xml:3:49-76
	android:smallScreens
		ADDED from D:\Pro\tcs2_gps\platforms\android\app\src\main\AndroidManifest.xml:3:132-159
	android:normalScreens
		ADDED from D:\Pro\tcs2_gps\platforms\android\app\src\main\AndroidManifest.xml:3:77-105
	android:xlargeScreens
		ADDED from D:\Pro\tcs2_gps\platforms\android\app\src\main\AndroidManifest.xml:3:160-188
	android:resizeable
		ADDED from D:\Pro\tcs2_gps\platforms\android\app\src\main\AndroidManifest.xml:3:106-131
	android:anyDensity
		ADDED from D:\Pro\tcs2_gps\platforms\android\app\src\main\AndroidManifest.xml:3:23-48
uses-permission#android.permission.INTERNET
ADDED from D:\Pro\tcs2_gps\platforms\android\app\src\main\AndroidManifest.xml:4:5-67
MERGED from [com.razorpay:checkout:1.5.12] C:\Users\Lenovo\.gradle\caches\transforms-1\files-1.1\checkout-1.5.12.aar\2a8d789d1e8cde9fdf1b809734cd43ae\AndroidManifest.xml:9:5-67
MERGED from [com.razorpay:checkout:1.5.12] C:\Users\Lenovo\.gradle\caches\transforms-1\files-1.1\checkout-1.5.12.aar\2a8d789d1e8cde9fdf1b809734cd43ae\AndroidManifest.xml:9:5-67
MERGED from [com.google.android.gms:play-services-maps:15.0.1] C:\Users\Lenovo\.gradle\caches\transforms-1\files-1.1\play-services-maps-15.0.1.aar\6faadf18ff9437b32c7c3f490319e665\AndroidManifest.xml:24:5-67
MERGED from [com.google.android.gms:play-services-maps:15.0.1] C:\Users\Lenovo\.gradle\caches\transforms-1\files-1.1\play-services-maps-15.0.1.aar\6faadf18ff9437b32c7c3f490319e665\AndroidManifest.xml:24:5-67
MERGED from [com.google.firebase:firebase-analytics-impl:15.0.0] C:\Users\Lenovo\.gradle\caches\transforms-1\files-1.1\firebase-analytics-impl-15.0.0.aar\be8b44e342253ef9b7e941d45e5a4453\AndroidManifest.xml:23:5-67
MERGED from [com.google.firebase:firebase-analytics-impl:15.0.0] C:\Users\Lenovo\.gradle\caches\transforms-1\files-1.1\firebase-analytics-impl-15.0.0.aar\be8b44e342253ef9b7e941d45e5a4453\AndroidManifest.xml:23:5-67
MERGED from [com.google.firebase:firebase-iid:15.0.0] C:\Users\Lenovo\.gradle\caches\transforms-1\files-1.1\firebase-iid-15.0.0.aar\4116caee5628817e271dc2644fb74ecd\AndroidManifest.xml:23:5-67
MERGED from [com.google.firebase:firebase-iid:15.0.0] C:\Users\Lenovo\.gradle\caches\transforms-1\files-1.1\firebase-iid-15.0.0.aar\4116caee5628817e271dc2644fb74ecd\AndroidManifest.xml:23:5-67
	android:name
		ADDED from D:\Pro\tcs2_gps\platforms\android\app\src\main\AndroidManifest.xml:4:22-64
application
ADDED from D:\Pro\tcs2_gps\platforms\android\app\src\main\AndroidManifest.xml:5:5-41:19
MERGED from [com.razorpay:checkout:1.5.12] C:\Users\Lenovo\.gradle\caches\transforms-1\files-1.1\checkout-1.5.12.aar\2a8d789d1e8cde9fdf1b809734cd43ae\AndroidManifest.xml:11:5-30:19
MERGED from [com.razorpay:checkout:1.5.12] C:\Users\Lenovo\.gradle\caches\transforms-1\files-1.1\checkout-1.5.12.aar\2a8d789d1e8cde9fdf1b809734cd43ae\AndroidManifest.xml:11:5-30:19
MERGED from [com.google.android.gms:play-services-maps:15.0.1] C:\Users\Lenovo\.gradle\caches\transforms-1\files-1.1\play-services-maps-15.0.1.aar\6faadf18ff9437b32c7c3f490319e665\AndroidManifest.xml:30:5-20
MERGED from [com.google.android.gms:play-services-maps:15.0.1] C:\Users\Lenovo\.gradle\caches\transforms-1\files-1.1\play-services-maps-15.0.1.aar\6faadf18ff9437b32c7c3f490319e665\AndroidManifest.xml:30:5-20
MERGED from [com.google.android.gms:play-services-location:15.0.1] C:\Users\Lenovo\.gradle\caches\transforms-1\files-1.1\play-services-location-15.0.1.aar\09fa3c518b1cb26279f0e3670c54da17\AndroidManifest.xml:7:5-20
MERGED from [com.google.android.gms:play-services-location:15.0.1] C:\Users\Lenovo\.gradle\caches\transforms-1\files-1.1\play-services-location-15.0.1.aar\09fa3c518b1cb26279f0e3670c54da17\AndroidManifest.xml:7:5-20
MERGED from [com.google.firebase:firebase-messaging:15.0.0] C:\Users\Lenovo\.gradle\caches\transforms-1\files-1.1\firebase-messaging-15.0.0.aar\943c520d76a1b4e595bb07983e79cd07\AndroidManifest.xml:22:5-35:19
MERGED from [com.google.firebase:firebase-messaging:15.0.0] C:\Users\Lenovo\.gradle\caches\transforms-1\files-1.1\firebase-messaging-15.0.0.aar\943c520d76a1b4e595bb07983e79cd07\AndroidManifest.xml:22:5-35:19
MERGED from [com.google.android.gms:play-services-base:15.0.1] C:\Users\Lenovo\.gradle\caches\transforms-1\files-1.1\play-services-base-15.0.1.aar\a4b7a00f60524d3871f1f71b3582e656\AndroidManifest.xml:22:5-27:19
MERGED from [com.google.android.gms:play-services-base:15.0.1] C:\Users\Lenovo\.gradle\caches\transforms-1\files-1.1\play-services-base-15.0.1.aar\a4b7a00f60524d3871f1f71b3582e656\AndroidManifest.xml:22:5-27:19
MERGED from [com.google.android.gms:play-services-places-placereport:15.0.1] C:\Users\Lenovo\.gradle\caches\transforms-1\files-1.1\play-services-places-placereport-15.0.1.aar\d8220c5177f8c69691b868b42d8ff6f5\AndroidManifest.xml:22:5-20
MERGED from [com.google.android.gms:play-services-places-placereport:15.0.1] C:\Users\Lenovo\.gradle\caches\transforms-1\files-1.1\play-services-places-placereport-15.0.1.aar\d8220c5177f8c69691b868b42d8ff6f5\AndroidManifest.xml:22:5-20
MERGED from [com.google.firebase:firebase-analytics-impl:15.0.0] C:\Users\Lenovo\.gradle\caches\transforms-1\files-1.1\firebase-analytics-impl-15.0.0.aar\be8b44e342253ef9b7e941d45e5a4453\AndroidManifest.xml:28:5-39:19
MERGED from [com.google.firebase:firebase-analytics-impl:15.0.0] C:\Users\Lenovo\.gradle\caches\transforms-1\files-1.1\firebase-analytics-impl-15.0.0.aar\be8b44e342253ef9b7e941d45e5a4453\AndroidManifest.xml:28:5-39:19
MERGED from [com.google.firebase:firebase-iid:15.0.0] C:\Users\Lenovo\.gradle\caches\transforms-1\files-1.1\firebase-iid-15.0.0.aar\4116caee5628817e271dc2644fb74ecd\AndroidManifest.xml:34:5-57:19
MERGED from [com.google.firebase:firebase-iid:15.0.0] C:\Users\Lenovo\.gradle\caches\transforms-1\files-1.1\firebase-iid-15.0.0.aar\4116caee5628817e271dc2644fb74ecd\AndroidManifest.xml:34:5-57:19
MERGED from [com.google.firebase:firebase-common:15.0.1] C:\Users\Lenovo\.gradle\caches\transforms-1\files-1.1\firebase-common-15.0.1.aar\f1652ff85af7aae577d8120aa79369b4\AndroidManifest.xml:7:5-13:19
MERGED from [com.google.firebase:firebase-common:15.0.1] C:\Users\Lenovo\.gradle\caches\transforms-1\files-1.1\firebase-common-15.0.1.aar\f1652ff85af7aae577d8120aa79369b4\AndroidManifest.xml:7:5-13:19
MERGED from [com.google.android.gms:play-services-tasks:15.0.1] C:\Users\Lenovo\.gradle\caches\transforms-1\files-1.1\play-services-tasks-15.0.1.aar\0a3649fde75bb822c8650ff03bf09510\AndroidManifest.xml:7:5-20
MERGED from [com.google.android.gms:play-services-tasks:15.0.1] C:\Users\Lenovo\.gradle\caches\transforms-1\files-1.1\play-services-tasks-15.0.1.aar\0a3649fde75bb822c8650ff03bf09510\AndroidManifest.xml:7:5-20
MERGED from [com.google.android.gms:play-services-ads-identifier:15.0.1] C:\Users\Lenovo\.gradle\caches\transforms-1\files-1.1\play-services-ads-identifier-15.0.1.aar\ca2a32ccb1b7e2a5c11532cf333e99ae\AndroidManifest.xml:22:5-20
MERGED from [com.google.android.gms:play-services-ads-identifier:15.0.1] C:\Users\Lenovo\.gradle\caches\transforms-1\files-1.1\play-services-ads-identifier-15.0.1.aar\ca2a32ccb1b7e2a5c11532cf333e99ae\AndroidManifest.xml:22:5-20
MERGED from [com.google.android.gms:play-services-stats:15.0.1] C:\Users\Lenovo\.gradle\caches\transforms-1\files-1.1\play-services-stats-15.0.1.aar\37b54d4a0b2cb2f268e575f4a070eaf5\AndroidManifest.xml:7:5-20
MERGED from [com.google.android.gms:play-services-stats:15.0.1] C:\Users\Lenovo\.gradle\caches\transforms-1\files-1.1\play-services-stats-15.0.1.aar\37b54d4a0b2cb2f268e575f4a070eaf5\AndroidManifest.xml:7:5-20
MERGED from [com.google.android.gms:play-services-basement:15.0.1] C:\Users\Lenovo\.gradle\caches\transforms-1\files-1.1\play-services-basement-15.0.1.aar\e591563713b041dc86dacbb52f70753a\AndroidManifest.xml:22:5-26:19
MERGED from [com.google.android.gms:play-services-basement:15.0.1] C:\Users\Lenovo\.gradle\caches\transforms-1\files-1.1\play-services-basement-15.0.1.aar\e591563713b041dc86dacbb52f70753a\AndroidManifest.xml:22:5-26:19
MERGED from [com.google.android.gms:play-services-measurement-base:15.0.0] C:\Users\Lenovo\.gradle\caches\transforms-1\files-1.1\play-services-measurement-base-15.0.0.aar\fd1e3a3d923bad1f0edc4ddc4d764424\AndroidManifest.xml:22:5-20
MERGED from [com.google.android.gms:play-services-measurement-base:15.0.0] C:\Users\Lenovo\.gradle\caches\transforms-1\files-1.1\play-services-measurement-base-15.0.0.aar\fd1e3a3d923bad1f0edc4ddc4d764424\AndroidManifest.xml:22:5-20
	android:supportsRtl
		ADDED from D:\Pro\tcs2_gps\platforms\android\app\src\main\AndroidManifest.xml:5:121-147
	android:label
		ADDED from D:\Pro\tcs2_gps\platforms\android\app\src\main\AndroidManifest.xml:5:88-120
	android:hardwareAccelerated
		ADDED from D:\Pro\tcs2_gps\platforms\android\app\src\main\AndroidManifest.xml:5:18-52
	android:icon
		ADDED from D:\Pro\tcs2_gps\platforms\android\app\src\main\AndroidManifest.xml:5:53-87
	android:usesCleartextTraffic
		ADDED from D:\Pro\tcs2_gps\platforms\android\app\src\main\AndroidManifest.xml:5:148-183
uses-library#org.apache.http.legacy
ADDED from D:\Pro\tcs2_gps\platforms\android\app\src\main\AndroidManifest.xml:6:9-88
	android:required
		ADDED from D:\Pro\tcs2_gps\platforms\android\app\src\main\AndroidManifest.xml:6:61-85
	android:name
		ADDED from D:\Pro\tcs2_gps\platforms\android\app\src\main\AndroidManifest.xml:6:23-60
activity#com.tcs.ionic.MainActivity
ADDED from D:\Pro\tcs2_gps\platforms\android\app\src\main\AndroidManifest.xml:7:9-12:20
	android:screenOrientation
		ADDED from D:\Pro\tcs2_gps\platforms\android\app\src\main\AndroidManifest.xml:7:194-230
	android:label
		ADDED from D:\Pro\tcs2_gps\platforms\android\app\src\main\AndroidManifest.xml:7:97-134
	android:launchMode
		ADDED from D:\Pro\tcs2_gps\platforms\android\app\src\main\AndroidManifest.xml:7:135-165
	android:windowSoftInputMode
		ADDED from D:\Pro\tcs2_gps\platforms\android\app\src\main\AndroidManifest.xml:7:294-336
	android:configChanges
		ADDED from D:\Pro\tcs2_gps\platforms\android\app\src\main\AndroidManifest.xml:7:19-96
	android:theme
		ADDED from D:\Pro\tcs2_gps\platforms\android\app\src\main\AndroidManifest.xml:7:231-293
	android:name
		ADDED from D:\Pro\tcs2_gps\platforms\android\app\src\main\AndroidManifest.xml:7:166-193
intent-filter#action:name:android.intent.action.MAIN+category:name:android.intent.category.LAUNCHER
ADDED from D:\Pro\tcs2_gps\platforms\android\app\src\main\AndroidManifest.xml:8:13-11:29
	android:label
		ADDED from D:\Pro\tcs2_gps\platforms\android\app\src\main\AndroidManifest.xml:8:28-65
action#android.intent.action.MAIN
ADDED from D:\Pro\tcs2_gps\platforms\android\app\src\main\AndroidManifest.xml:9:17-69
	android:name
		ADDED from D:\Pro\tcs2_gps\platforms\android\app\src\main\AndroidManifest.xml:9:25-66
category#android.intent.category.LAUNCHER
ADDED from D:\Pro\tcs2_gps\platforms\android\app\src\main\AndroidManifest.xml:10:17-77
	android:name
		ADDED from D:\Pro\tcs2_gps\platforms\android\app\src\main\AndroidManifest.xml:10:27-74
meta-data#com.google.android.gms.version
ADDED from D:\Pro\tcs2_gps\platforms\android\app\src\main\AndroidManifest.xml:17:9-122
MERGED from [com.google.android.gms:play-services-basement:15.0.1] C:\Users\Lenovo\.gradle\caches\transforms-1\files-1.1\play-services-basement-15.0.1.aar\e591563713b041dc86dacbb52f70753a\AndroidManifest.xml:23:9-25:69
MERGED from [com.google.android.gms:play-services-basement:15.0.1] C:\Users\Lenovo\.gradle\caches\transforms-1\files-1.1\play-services-basement-15.0.1.aar\e591563713b041dc86dacbb52f70753a\AndroidManifest.xml:23:9-25:69
	android:value
		ADDED from D:\Pro\tcs2_gps\platforms\android\app\src\main\AndroidManifest.xml:17:66-119
	android:name
		ADDED from D:\Pro\tcs2_gps\platforms\android\app\src\main\AndroidManifest.xml:17:20-65
receiver#nl.xservices.plugins.ShareChooserPendingIntent
ADDED from D:\Pro\tcs2_gps\platforms\android\app\src\main\AndroidManifest.xml:19:9-23:20
	android:enabled
		ADDED from D:\Pro\tcs2_gps\platforms\android\app\src\main\AndroidManifest.xml:19:19-41
	android:name
		ADDED from D:\Pro\tcs2_gps\platforms\android\app\src\main\AndroidManifest.xml:19:42-103
intent-filter#action:name:android.intent.action.SEND
ADDED from D:\Pro\tcs2_gps\platforms\android\app\src\main\AndroidManifest.xml:20:13-22:29
action#android.intent.action.SEND
ADDED from D:\Pro\tcs2_gps\platforms\android\app\src\main\AndroidManifest.xml:21:17-69
	android:name
		ADDED from D:\Pro\tcs2_gps\platforms\android\app\src\main\AndroidManifest.xml:21:25-66
receiver#com.adobe.phonegap.push.BackgroundActionButtonHandler
ADDED from D:\Pro\tcs2_gps\platforms\android\app\src\main\AndroidManifest.xml:28:9-90
	android:name
		ADDED from D:\Pro\tcs2_gps\platforms\android\app\src\main\AndroidManifest.xml:28:19-87
receiver#com.adobe.phonegap.push.PushDismissedHandler
ADDED from D:\Pro\tcs2_gps\platforms\android\app\src\main\AndroidManifest.xml:29:9-81
	android:name
		ADDED from D:\Pro\tcs2_gps\platforms\android\app\src\main\AndroidManifest.xml:29:19-78
service#com.adobe.phonegap.push.FCMService
ADDED from D:\Pro\tcs2_gps\platforms\android\app\src\main\AndroidManifest.xml:30:9-34:19
	android:name
		ADDED from D:\Pro\tcs2_gps\platforms\android\app\src\main\AndroidManifest.xml:30:18-67
intent-filter#action:name:com.google.firebase.MESSAGING_EVENT
ADDED from D:\Pro\tcs2_gps\platforms\android\app\src\main\AndroidManifest.xml:31:13-33:29
action#com.google.firebase.MESSAGING_EVENT
ADDED from D:\Pro\tcs2_gps\platforms\android\app\src\main\AndroidManifest.xml:32:17-78
	android:name
		ADDED from D:\Pro\tcs2_gps\platforms\android\app\src\main\AndroidManifest.xml:32:25-75
service#com.adobe.phonegap.push.PushInstanceIDListenerService
ADDED from D:\Pro\tcs2_gps\platforms\android\app\src\main\AndroidManifest.xml:35:9-39:19
	android:name
		ADDED from D:\Pro\tcs2_gps\platforms\android\app\src\main\AndroidManifest.xml:35:18-86
intent-filter#action:name:com.google.firebase.INSTANCE_ID_EVENT
ADDED from D:\Pro\tcs2_gps\platforms\android\app\src\main\AndroidManifest.xml:36:13-38:29
action#com.google.firebase.INSTANCE_ID_EVENT
ADDED from D:\Pro\tcs2_gps\platforms\android\app\src\main\AndroidManifest.xml:37:17-80
	android:name
		ADDED from D:\Pro\tcs2_gps\platforms\android\app\src\main\AndroidManifest.xml:37:25-77
meta-data#launchnavigator.GOOGLE_API_KEY
ADDED from D:\Pro\tcs2_gps\platforms\android\app\src\main\AndroidManifest.xml:40:9-124
	android:value
		ADDED from D:\Pro\tcs2_gps\platforms\android\app\src\main\AndroidManifest.xml:40:66-121
	android:name
		ADDED from D:\Pro\tcs2_gps\platforms\android\app\src\main\AndroidManifest.xml:40:20-65
uses-sdk
ADDED from D:\Pro\tcs2_gps\platforms\android\app\src\main\AndroidManifest.xml:42:5-74
INJECTED from D:\Pro\tcs2_gps\platforms\android\app\src\main\AndroidManifest.xml:42:5-74
MERGED from [:tbxml-android:] C:\Users\Lenovo\.gradle\caches\transforms-1\files-1.1\tbxml-android.aar\5adca22afad1d5939e15045e619187ad\AndroidManifest.xml:7:5-9:41
MERGED from [:tbxml-android:] C:\Users\Lenovo\.gradle\caches\transforms-1\files-1.1\tbxml-android.aar\5adca22afad1d5939e15045e619187ad\AndroidManifest.xml:7:5-9:41
MERGED from [:CordovaLib] D:\Pro\tcs2_gps\platforms\android\CordovaLib\build\intermediates\library_manifest\release\AndroidManifest.xml:25:5-44
MERGED from [:CordovaLib] D:\Pro\tcs2_gps\platforms\android\CordovaLib\build\intermediates\library_manifest\release\AndroidManifest.xml:25:5-44
MERGED from [com.razorpay:checkout:1.5.12] C:\Users\Lenovo\.gradle\caches\transforms-1\files-1.1\checkout-1.5.12.aar\2a8d789d1e8cde9fdf1b809734cd43ae\AndroidManifest.xml:5:5-7:41
MERGED from [com.razorpay:checkout:1.5.12] C:\Users\Lenovo\.gradle\caches\transforms-1\files-1.1\checkout-1.5.12.aar\2a8d789d1e8cde9fdf1b809734cd43ae\AndroidManifest.xml:5:5-7:41
MERGED from [com.android.support:support-v13:27.1.1] C:\Users\Lenovo\.gradle\caches\transforms-1\files-1.1\support-v13-27.1.1.aar\a2554c1bc8bccc4b7228587394fa33ce\AndroidManifest.xml:20:5-44
MERGED from [com.android.support:support-v13:27.1.1] C:\Users\Lenovo\.gradle\caches\transforms-1\files-1.1\support-v13-27.1.1.aar\a2554c1bc8bccc4b7228587394fa33ce\AndroidManifest.xml:20:5-44
MERGED from [com.google.android.gms:play-services-maps:15.0.1] C:\Users\Lenovo\.gradle\caches\transforms-1\files-1.1\play-services-maps-15.0.1.aar\6faadf18ff9437b32c7c3f490319e665\AndroidManifest.xml:20:5-44
MERGED from [com.google.android.gms:play-services-maps:15.0.1] C:\Users\Lenovo\.gradle\caches\transforms-1\files-1.1\play-services-maps-15.0.1.aar\6faadf18ff9437b32c7c3f490319e665\AndroidManifest.xml:20:5-44
MERGED from [com.google.android.gms:play-services-location:15.0.1] C:\Users\Lenovo\.gradle\caches\transforms-1\files-1.1\play-services-location-15.0.1.aar\09fa3c518b1cb26279f0e3670c54da17\AndroidManifest.xml:5:5-44
MERGED from [com.google.android.gms:play-services-location:15.0.1] C:\Users\Lenovo\.gradle\caches\transforms-1\files-1.1\play-services-location-15.0.1.aar\09fa3c518b1cb26279f0e3670c54da17\AndroidManifest.xml:5:5-44
MERGED from [com.google.firebase:firebase-messaging:15.0.0] C:\Users\Lenovo\.gradle\caches\transforms-1\files-1.1\firebase-messaging-15.0.0.aar\943c520d76a1b4e595bb07983e79cd07\AndroidManifest.xml:20:5-44
MERGED from [com.google.firebase:firebase-messaging:15.0.0] C:\Users\Lenovo\.gradle\caches\transforms-1\files-1.1\firebase-messaging-15.0.0.aar\943c520d76a1b4e595bb07983e79cd07\AndroidManifest.xml:20:5-44
MERGED from [com.google.android.gms:play-services-base:15.0.1] C:\Users\Lenovo\.gradle\caches\transforms-1\files-1.1\play-services-base-15.0.1.aar\a4b7a00f60524d3871f1f71b3582e656\AndroidManifest.xml:20:5-44
MERGED from [com.google.android.gms:play-services-base:15.0.1] C:\Users\Lenovo\.gradle\caches\transforms-1\files-1.1\play-services-base-15.0.1.aar\a4b7a00f60524d3871f1f71b3582e656\AndroidManifest.xml:20:5-44
MERGED from [com.google.android.gms:play-services-places-placereport:15.0.1] C:\Users\Lenovo\.gradle\caches\transforms-1\files-1.1\play-services-places-placereport-15.0.1.aar\d8220c5177f8c69691b868b42d8ff6f5\AndroidManifest.xml:20:5-44
MERGED from [com.google.android.gms:play-services-places-placereport:15.0.1] C:\Users\Lenovo\.gradle\caches\transforms-1\files-1.1\play-services-places-placereport-15.0.1.aar\d8220c5177f8c69691b868b42d8ff6f5\AndroidManifest.xml:20:5-44
MERGED from [com.google.firebase:firebase-analytics-impl:15.0.0] C:\Users\Lenovo\.gradle\caches\transforms-1\files-1.1\firebase-analytics-impl-15.0.0.aar\be8b44e342253ef9b7e941d45e5a4453\AndroidManifest.xml:20:5-44
MERGED from [com.google.firebase:firebase-analytics-impl:15.0.0] C:\Users\Lenovo\.gradle\caches\transforms-1\files-1.1\firebase-analytics-impl-15.0.0.aar\be8b44e342253ef9b7e941d45e5a4453\AndroidManifest.xml:20:5-44
MERGED from [com.google.firebase:firebase-iid:15.0.0] C:\Users\Lenovo\.gradle\caches\transforms-1\files-1.1\firebase-iid-15.0.0.aar\4116caee5628817e271dc2644fb74ecd\AndroidManifest.xml:20:5-44
MERGED from [com.google.firebase:firebase-iid:15.0.0] C:\Users\Lenovo\.gradle\caches\transforms-1\files-1.1\firebase-iid-15.0.0.aar\4116caee5628817e271dc2644fb74ecd\AndroidManifest.xml:20:5-44
MERGED from [com.google.firebase:firebase-common:15.0.1] C:\Users\Lenovo\.gradle\caches\transforms-1\files-1.1\firebase-common-15.0.1.aar\f1652ff85af7aae577d8120aa79369b4\AndroidManifest.xml:5:5-44
MERGED from [com.google.firebase:firebase-common:15.0.1] C:\Users\Lenovo\.gradle\caches\transforms-1\files-1.1\firebase-common-15.0.1.aar\f1652ff85af7aae577d8120aa79369b4\AndroidManifest.xml:5:5-44
MERGED from [com.google.android.gms:play-services-tasks:15.0.1] C:\Users\Lenovo\.gradle\caches\transforms-1\files-1.1\play-services-tasks-15.0.1.aar\0a3649fde75bb822c8650ff03bf09510\AndroidManifest.xml:5:5-44
MERGED from [com.google.android.gms:play-services-tasks:15.0.1] C:\Users\Lenovo\.gradle\caches\transforms-1\files-1.1\play-services-tasks-15.0.1.aar\0a3649fde75bb822c8650ff03bf09510\AndroidManifest.xml:5:5-44
MERGED from [com.google.android.gms:play-services-ads-identifier:15.0.1] C:\Users\Lenovo\.gradle\caches\transforms-1\files-1.1\play-services-ads-identifier-15.0.1.aar\ca2a32ccb1b7e2a5c11532cf333e99ae\AndroidManifest.xml:20:5-44
MERGED from [com.google.android.gms:play-services-ads-identifier:15.0.1] C:\Users\Lenovo\.gradle\caches\transforms-1\files-1.1\play-services-ads-identifier-15.0.1.aar\ca2a32ccb1b7e2a5c11532cf333e99ae\AndroidManifest.xml:20:5-44
MERGED from [com.google.android.gms:play-services-stats:15.0.1] C:\Users\Lenovo\.gradle\caches\transforms-1\files-1.1\play-services-stats-15.0.1.aar\37b54d4a0b2cb2f268e575f4a070eaf5\AndroidManifest.xml:5:5-44
MERGED from [com.google.android.gms:play-services-stats:15.0.1] C:\Users\Lenovo\.gradle\caches\transforms-1\files-1.1\play-services-stats-15.0.1.aar\37b54d4a0b2cb2f268e575f4a070eaf5\AndroidManifest.xml:5:5-44
MERGED from [com.google.android.gms:play-services-basement:15.0.1] C:\Users\Lenovo\.gradle\caches\transforms-1\files-1.1\play-services-basement-15.0.1.aar\e591563713b041dc86dacbb52f70753a\AndroidManifest.xml:20:5-44
MERGED from [com.google.android.gms:play-services-basement:15.0.1] C:\Users\Lenovo\.gradle\caches\transforms-1\files-1.1\play-services-basement-15.0.1.aar\e591563713b041dc86dacbb52f70753a\AndroidManifest.xml:20:5-44
MERGED from [com.android.support:support-v4:27.1.1] C:\Users\Lenovo\.gradle\caches\transforms-1\files-1.1\support-v4-27.1.1.aar\2e74539778f677c57cd8ac813de6b92a\AndroidManifest.xml:20:5-44
MERGED from [com.android.support:support-v4:27.1.1] C:\Users\Lenovo\.gradle\caches\transforms-1\files-1.1\support-v4-27.1.1.aar\2e74539778f677c57cd8ac813de6b92a\AndroidManifest.xml:20:5-44
MERGED from [com.android.support:support-fragment:27.1.1] C:\Users\Lenovo\.gradle\caches\transforms-1\files-1.1\support-fragment-27.1.1.aar\b8f874aa3ce3d4290d6fffa9578937f7\AndroidManifest.xml:20:5-44
MERGED from [com.android.support:support-fragment:27.1.1] C:\Users\Lenovo\.gradle\caches\transforms-1\files-1.1\support-fragment-27.1.1.aar\b8f874aa3ce3d4290d6fffa9578937f7\AndroidManifest.xml:20:5-44
MERGED from [com.android.support:support-core-ui:27.1.1] C:\Users\Lenovo\.gradle\caches\transforms-1\files-1.1\support-core-ui-27.1.1.aar\18e962e33041957c3ae6db2a065ac64a\AndroidManifest.xml:20:5-44
MERGED from [com.android.support:support-core-ui:27.1.1] C:\Users\Lenovo\.gradle\caches\transforms-1\files-1.1\support-core-ui-27.1.1.aar\18e962e33041957c3ae6db2a065ac64a\AndroidManifest.xml:20:5-44
MERGED from [com.android.support:support-core-utils:27.1.1] C:\Users\Lenovo\.gradle\caches\transforms-1\files-1.1\support-core-utils-27.1.1.aar\3298c78098b48a5a607e907813cb787f\AndroidManifest.xml:20:5-44
MERGED from [com.android.support:support-core-utils:27.1.1] C:\Users\Lenovo\.gradle\caches\transforms-1\files-1.1\support-core-utils-27.1.1.aar\3298c78098b48a5a607e907813cb787f\AndroidManifest.xml:20:5-44
MERGED from [com.android.support:support-media-compat:27.1.1] C:\Users\Lenovo\.gradle\caches\transforms-1\files-1.1\support-media-compat-27.1.1.aar\f969046b8b5510c73e186c6afedc9cf1\AndroidManifest.xml:20:5-44
MERGED from [com.android.support:support-media-compat:27.1.1] C:\Users\Lenovo\.gradle\caches\transforms-1\files-1.1\support-media-compat-27.1.1.aar\f969046b8b5510c73e186c6afedc9cf1\AndroidManifest.xml:20:5-44
MERGED from [com.android.support:support-compat:27.1.1] C:\Users\Lenovo\.gradle\caches\transforms-1\files-1.1\support-compat-27.1.1.aar\22d0284d68800cedc4ce8aa7e0876ebd\AndroidManifest.xml:20:5-44
MERGED from [com.android.support:support-compat:27.1.1] C:\Users\Lenovo\.gradle\caches\transforms-1\files-1.1\support-compat-27.1.1.aar\22d0284d68800cedc4ce8aa7e0876ebd\AndroidManifest.xml:20:5-44
MERGED from [me.leolin:ShortcutBadger:1.1.17] C:\Users\Lenovo\.gradle\caches\transforms-1\files-1.1\ShortcutBadger-1.1.17.aar\c3224c1c400986009de1cb09c58fc57e\AndroidManifest.xml:7:5-9:41
MERGED from [me.leolin:ShortcutBadger:1.1.17] C:\Users\Lenovo\.gradle\caches\transforms-1\files-1.1\ShortcutBadger-1.1.17.aar\c3224c1c400986009de1cb09c58fc57e\AndroidManifest.xml:7:5-9:41
MERGED from [com.android.support:multidex:1.0.2] C:\Users\Lenovo\.gradle\caches\transforms-1\files-1.1\multidex-1.0.2.aar\a8b2308bc26fe7599e62ca6470b74da3\AndroidManifest.xml:20:5-43
MERGED from [com.android.support:multidex:1.0.2] C:\Users\Lenovo\.gradle\caches\transforms-1\files-1.1\multidex-1.0.2.aar\a8b2308bc26fe7599e62ca6470b74da3\AndroidManifest.xml:20:5-43
MERGED from [com.google.android.gms:play-services-measurement-base:15.0.0] C:\Users\Lenovo\.gradle\caches\transforms-1\files-1.1\play-services-measurement-base-15.0.0.aar\fd1e3a3d923bad1f0edc4ddc4d764424\AndroidManifest.xml:20:5-44
MERGED from [com.google.android.gms:play-services-measurement-base:15.0.0] C:\Users\Lenovo\.gradle\caches\transforms-1\files-1.1\play-services-measurement-base-15.0.0.aar\fd1e3a3d923bad1f0edc4ddc4d764424\AndroidManifest.xml:20:5-44
MERGED from [android.arch.lifecycle:runtime:1.1.0] C:\Users\Lenovo\.gradle\caches\transforms-1\files-1.1\runtime-1.1.0.aar\909be2f0e2414599bfb397d30888b529\AndroidManifest.xml:20:5-44
MERGED from [android.arch.lifecycle:runtime:1.1.0] C:\Users\Lenovo\.gradle\caches\transforms-1\files-1.1\runtime-1.1.0.aar\909be2f0e2414599bfb397d30888b529\AndroidManifest.xml:20:5-44
MERGED from [android.arch.lifecycle:livedata-core:1.1.0] C:\Users\Lenovo\.gradle\caches\transforms-1\files-1.1\livedata-core-1.1.0.aar\e930ff687273218a5748885d798425cc\AndroidManifest.xml:20:5-44
MERGED from [android.arch.lifecycle:livedata-core:1.1.0] C:\Users\Lenovo\.gradle\caches\transforms-1\files-1.1\livedata-core-1.1.0.aar\e930ff687273218a5748885d798425cc\AndroidManifest.xml:20:5-44
MERGED from [android.arch.lifecycle:viewmodel:1.1.0] C:\Users\Lenovo\.gradle\caches\transforms-1\files-1.1\viewmodel-1.1.0.aar\1d6d08389e5aaa4f8b08d092661cd65d\AndroidManifest.xml:20:5-44
MERGED from [android.arch.lifecycle:viewmodel:1.1.0] C:\Users\Lenovo\.gradle\caches\transforms-1\files-1.1\viewmodel-1.1.0.aar\1d6d08389e5aaa4f8b08d092661cd65d\AndroidManifest.xml:20:5-44
MERGED from [android.arch.core:runtime:1.1.0] C:\Users\Lenovo\.gradle\caches\transforms-1\files-1.1\runtime-1.1.0.aar\71ed0252ea6f28c9783bd9ce61696f3c\AndroidManifest.xml:20:5-44
MERGED from [android.arch.core:runtime:1.1.0] C:\Users\Lenovo\.gradle\caches\transforms-1\files-1.1\runtime-1.1.0.aar\71ed0252ea6f28c9783bd9ce61696f3c\AndroidManifest.xml:20:5-44
INJECTED from D:\Pro\tcs2_gps\platforms\android\app\src\main\AndroidManifest.xml:42:5-74
	android:targetSdkVersion
		ADDED from D:\Pro\tcs2_gps\platforms\android\app\src\main\AndroidManifest.xml:42:42-71
	android:minSdkVersion
		ADDED from D:\Pro\tcs2_gps\platforms\android\app\src\main\AndroidManifest.xml:42:15-41
		INJECTED from D:\Pro\tcs2_gps\platforms\android\app\src\main\AndroidManifest.xml
		INJECTED from D:\Pro\tcs2_gps\platforms\android\app\src\main\AndroidManifest.xml
uses-permission#android.permission.CALL_PHONE
ADDED from D:\Pro\tcs2_gps\platforms\android\app\src\main\AndroidManifest.xml:43:5-69
	android:name
		ADDED from D:\Pro\tcs2_gps\platforms\android\app\src\main\AndroidManifest.xml:43:22-66
uses-feature#android.hardware.telephony
ADDED from D:\Pro\tcs2_gps\platforms\android\app\src\main\AndroidManifest.xml:44:5-88
	android:required
		ADDED from D:\Pro\tcs2_gps\platforms\android\app\src\main\AndroidManifest.xml:44:61-85
	android:name
		ADDED from D:\Pro\tcs2_gps\platforms\android\app\src\main\AndroidManifest.xml:44:19-60
uses-permission#android.permission.WRITE_EXTERNAL_STORAGE
ADDED from D:\Pro\tcs2_gps\platforms\android\app\src\main\AndroidManifest.xml:45:5-81
	android:name
		ADDED from D:\Pro\tcs2_gps\platforms\android\app\src\main\AndroidManifest.xml:45:22-78
uses-permission#android.permission.READ_EXTERNAL_STORAGE
ADDED from D:\Pro\tcs2_gps\platforms\android\app\src\main\AndroidManifest.xml:46:5-80
	android:name
		ADDED from D:\Pro\tcs2_gps\platforms\android\app\src\main\AndroidManifest.xml:46:22-77
uses-permission#android.permission.ACCESS_COARSE_LOCATION
ADDED from D:\Pro\tcs2_gps\platforms\android\app\src\main\AndroidManifest.xml:47:5-81
	android:name
		ADDED from D:\Pro\tcs2_gps\platforms\android\app\src\main\AndroidManifest.xml:47:22-78
uses-permission#android.permission.ACCESS_FINE_LOCATION
ADDED from D:\Pro\tcs2_gps\platforms\android\app\src\main\AndroidManifest.xml:48:5-79
	android:name
		ADDED from D:\Pro\tcs2_gps\platforms\android\app\src\main\AndroidManifest.xml:48:22-76
uses-feature#android.hardware.location.gps
ADDED from D:\Pro\tcs2_gps\platforms\android\app\src\main\AndroidManifest.xml:49:5-66
	android:name
		ADDED from D:\Pro\tcs2_gps\platforms\android\app\src\main\AndroidManifest.xml:49:19-63
uses-permission#android.permission.ACCESS_NETWORK_STATE
ADDED from D:\Pro\tcs2_gps\platforms\android\app\src\main\AndroidManifest.xml:50:5-79
MERGED from [com.google.android.gms:play-services-maps:15.0.1] C:\Users\Lenovo\.gradle\caches\transforms-1\files-1.1\play-services-maps-15.0.1.aar\6faadf18ff9437b32c7c3f490319e665\AndroidManifest.xml:23:5-79
MERGED from [com.google.android.gms:play-services-maps:15.0.1] C:\Users\Lenovo\.gradle\caches\transforms-1\files-1.1\play-services-maps-15.0.1.aar\6faadf18ff9437b32c7c3f490319e665\AndroidManifest.xml:23:5-79
MERGED from [com.google.firebase:firebase-analytics-impl:15.0.0] C:\Users\Lenovo\.gradle\caches\transforms-1\files-1.1\firebase-analytics-impl-15.0.0.aar\be8b44e342253ef9b7e941d45e5a4453\AndroidManifest.xml:24:5-79
MERGED from [com.google.firebase:firebase-analytics-impl:15.0.0] C:\Users\Lenovo\.gradle\caches\transforms-1\files-1.1\firebase-analytics-impl-15.0.0.aar\be8b44e342253ef9b7e941d45e5a4453\AndroidManifest.xml:24:5-79
MERGED from [com.google.firebase:firebase-iid:15.0.0] C:\Users\Lenovo\.gradle\caches\transforms-1\files-1.1\firebase-iid-15.0.0.aar\4116caee5628817e271dc2644fb74ecd\AndroidManifest.xml:22:5-79
MERGED from [com.google.firebase:firebase-iid:15.0.0] C:\Users\Lenovo\.gradle\caches\transforms-1\files-1.1\firebase-iid-15.0.0.aar\4116caee5628817e271dc2644fb74ecd\AndroidManifest.xml:22:5-79
	android:name
		ADDED from D:\Pro\tcs2_gps\platforms\android\app\src\main\AndroidManifest.xml:50:22-76
uses-feature#0x00020000
ADDED from D:\Pro\tcs2_gps\platforms\android\app\src\main\AndroidManifest.xml:51:5-78
MERGED from [com.google.android.gms:play-services-maps:15.0.1] C:\Users\Lenovo\.gradle\caches\transforms-1\files-1.1\play-services-maps-15.0.1.aar\6faadf18ff9437b32c7c3f490319e665\AndroidManifest.xml:26:5-28:35
MERGED from [com.google.android.gms:play-services-maps:15.0.1] C:\Users\Lenovo\.gradle\caches\transforms-1\files-1.1\play-services-maps-15.0.1.aar\6faadf18ff9437b32c7c3f490319e665\AndroidManifest.xml:26:5-28:35
	android:glEsVersion
		ADDED from D:\Pro\tcs2_gps\platforms\android\app\src\main\AndroidManifest.xml:51:19-51
	android:required
		ADDED from D:\Pro\tcs2_gps\platforms\android\app\src\main\AndroidManifest.xml:51:52-75
uses-feature#android.hardware.location
ADDED from D:\Pro\tcs2_gps\platforms\android\app\src\main\AndroidManifest.xml:52:5-62
	android:name
		ADDED from D:\Pro\tcs2_gps\platforms\android\app\src\main\AndroidManifest.xml:52:19-59
uses-permission#android.permission.MODIFY_AUDIO_SETTINGS
ADDED from D:\Pro\tcs2_gps\platforms\android\app\src\main\AndroidManifest.xml:53:5-80
	android:name
		ADDED from D:\Pro\tcs2_gps\platforms\android\app\src\main\AndroidManifest.xml:53:22-77
uses-permission#android.permission.ACCESS_WIFI_STATE
ADDED from D:\Pro\tcs2_gps\platforms\android\app\src\main\AndroidManifest.xml:54:5-76
	android:name
		ADDED from D:\Pro\tcs2_gps\platforms\android\app\src\main\AndroidManifest.xml:54:22-73
uses-permission#android.permission.WAKE_LOCK
ADDED from D:\Pro\tcs2_gps\platforms\android\app\src\main\AndroidManifest.xml:55:5-68
MERGED from [com.google.firebase:firebase-analytics-impl:15.0.0] C:\Users\Lenovo\.gradle\caches\transforms-1\files-1.1\firebase-analytics-impl-15.0.0.aar\be8b44e342253ef9b7e941d45e5a4453\AndroidManifest.xml:25:5-68
MERGED from [com.google.firebase:firebase-analytics-impl:15.0.0] C:\Users\Lenovo\.gradle\caches\transforms-1\files-1.1\firebase-analytics-impl-15.0.0.aar\be8b44e342253ef9b7e941d45e5a4453\AndroidManifest.xml:25:5-68
MERGED from [com.google.firebase:firebase-iid:15.0.0] C:\Users\Lenovo\.gradle\caches\transforms-1\files-1.1\firebase-iid-15.0.0.aar\4116caee5628817e271dc2644fb74ecd\AndroidManifest.xml:24:5-68
MERGED from [com.google.firebase:firebase-iid:15.0.0] C:\Users\Lenovo\.gradle\caches\transforms-1\files-1.1\firebase-iid-15.0.0.aar\4116caee5628817e271dc2644fb74ecd\AndroidManifest.xml:24:5-68
	android:name
		ADDED from D:\Pro\tcs2_gps\platforms\android\app\src\main\AndroidManifest.xml:55:22-65
uses-permission#android.permission.VIBRATE
ADDED from D:\Pro\tcs2_gps\platforms\android\app\src\main\AndroidManifest.xml:56:5-66
	android:name
		ADDED from D:\Pro\tcs2_gps\platforms\android\app\src\main\AndroidManifest.xml:56:22-63
meta-data#android.support.FILE_PROVIDER_PATHS
ADDED from D:\Pro\tcs2_gps\platforms\android\app\src\main\AndroidManifest.xml:14:13-123
	android:resource
		ADDED from D:\Pro\tcs2_gps\platforms\android\app\src\main\AndroidManifest.xml:14:75-120
	android:name
		ADDED from D:\Pro\tcs2_gps\platforms\android\app\src\main\AndroidManifest.xml:14:24-74
receiver#com.razorpay.RzpTokenReceiver
ADDED from [com.razorpay:checkout:1.5.12] C:\Users\Lenovo\.gradle\caches\transforms-1\files-1.1\checkout-1.5.12.aar\2a8d789d1e8cde9fdf1b809734cd43ae\AndroidManifest.xml:12:9-16:20
	android:name
		ADDED from [com.razorpay:checkout:1.5.12] C:\Users\Lenovo\.gradle\caches\transforms-1\files-1.1\checkout-1.5.12.aar\2a8d789d1e8cde9fdf1b809734cd43ae\AndroidManifest.xml:12:19-63
intent-filter#action:name:rzp.device_token.share
ADDED from [com.razorpay:checkout:1.5.12] C:\Users\Lenovo\.gradle\caches\transforms-1\files-1.1\checkout-1.5.12.aar\2a8d789d1e8cde9fdf1b809734cd43ae\AndroidManifest.xml:13:13-15:29
action#rzp.device_token.share
ADDED from [com.razorpay:checkout:1.5.12] C:\Users\Lenovo\.gradle\caches\transforms-1\files-1.1\checkout-1.5.12.aar\2a8d789d1e8cde9fdf1b809734cd43ae\AndroidManifest.xml:14:17-65
	android:name
		ADDED from [com.razorpay:checkout:1.5.12] C:\Users\Lenovo\.gradle\caches\transforms-1\files-1.1\checkout-1.5.12.aar\2a8d789d1e8cde9fdf1b809734cd43ae\AndroidManifest.xml:14:25-62
activity#com.razorpay.CheckoutActivity
ADDED from [com.razorpay:checkout:1.5.12] C:\Users\Lenovo\.gradle\caches\transforms-1\files-1.1\checkout-1.5.12.aar\2a8d789d1e8cde9fdf1b809734cd43ae\AndroidManifest.xml:18:9-29:20
	android:configChanges
		ADDED from [com.razorpay:checkout:1.5.12] C:\Users\Lenovo\.gradle\caches\transforms-1\files-1.1\checkout-1.5.12.aar\2a8d789d1e8cde9fdf1b809734cd43ae\AndroidManifest.xml:20:13-83
	android:theme
		ADDED from [com.razorpay:checkout:1.5.12] C:\Users\Lenovo\.gradle\caches\transforms-1\files-1.1\checkout-1.5.12.aar\2a8d789d1e8cde9fdf1b809734cd43ae\AndroidManifest.xml:21:13-49
	android:name
		ADDED from [com.razorpay:checkout:1.5.12] C:\Users\Lenovo\.gradle\caches\transforms-1\files-1.1\checkout-1.5.12.aar\2a8d789d1e8cde9fdf1b809734cd43ae\AndroidManifest.xml:19:13-57
intent-filter#action:name:android.intent.action.MAIN+data:host:rzp.io+data:scheme:io.rzp
ADDED from [com.razorpay:checkout:1.5.12] C:\Users\Lenovo\.gradle\caches\transforms-1\files-1.1\checkout-1.5.12.aar\2a8d789d1e8cde9fdf1b809734cd43ae\AndroidManifest.xml:22:13-28:29
data
ADDED from [com.razorpay:checkout:1.5.12] C:\Users\Lenovo\.gradle\caches\transforms-1\files-1.1\checkout-1.5.12.aar\2a8d789d1e8cde9fdf1b809734cd43ae\AndroidManifest.xml:25:17-27:47
	android:host
		ADDED from [com.razorpay:checkout:1.5.12] C:\Users\Lenovo\.gradle\caches\transforms-1\files-1.1\checkout-1.5.12.aar\2a8d789d1e8cde9fdf1b809734cd43ae\AndroidManifest.xml:26:21-42
	android:scheme
		ADDED from [com.razorpay:checkout:1.5.12] C:\Users\Lenovo\.gradle\caches\transforms-1\files-1.1\checkout-1.5.12.aar\2a8d789d1e8cde9fdf1b809734cd43ae\AndroidManifest.xml:27:21-44
service#com.google.firebase.messaging.FirebaseMessagingService
ADDED from [com.google.firebase:firebase-messaging:15.0.0] C:\Users\Lenovo\.gradle\caches\transforms-1\files-1.1\firebase-messaging-15.0.0.aar\943c520d76a1b4e595bb07983e79cd07\AndroidManifest.xml:28:9-34:19
	android:exported
		ADDED from [com.google.firebase:firebase-messaging:15.0.0] C:\Users\Lenovo\.gradle\caches\transforms-1\files-1.1\firebase-messaging-15.0.0.aar\943c520d76a1b4e595bb07983e79cd07\AndroidManifest.xml:30:13-36
	android:name
		ADDED from [com.google.firebase:firebase-messaging:15.0.0] C:\Users\Lenovo\.gradle\caches\transforms-1\files-1.1\firebase-messaging-15.0.0.aar\943c520d76a1b4e595bb07983e79cd07\AndroidManifest.xml:29:13-82
activity#com.google.android.gms.common.api.GoogleApiActivity
ADDED from [com.google.android.gms:play-services-base:15.0.1] C:\Users\Lenovo\.gradle\caches\transforms-1\files-1.1\play-services-base-15.0.1.aar\a4b7a00f60524d3871f1f71b3582e656\AndroidManifest.xml:23:9-26:75
	android:exported
		ADDED from [com.google.android.gms:play-services-base:15.0.1] C:\Users\Lenovo\.gradle\caches\transforms-1\files-1.1\play-services-base-15.0.1.aar\a4b7a00f60524d3871f1f71b3582e656\AndroidManifest.xml:25:13-37
	android:theme
		ADDED from [com.google.android.gms:play-services-base:15.0.1] C:\Users\Lenovo\.gradle\caches\transforms-1\files-1.1\play-services-base-15.0.1.aar\a4b7a00f60524d3871f1f71b3582e656\AndroidManifest.xml:26:13-72
	android:name
		ADDED from [com.google.android.gms:play-services-base:15.0.1] C:\Users\Lenovo\.gradle\caches\transforms-1\files-1.1\play-services-base-15.0.1.aar\a4b7a00f60524d3871f1f71b3582e656\AndroidManifest.xml:24:13-79
uses-permission#com.google.android.finsky.permission.BIND_GET_INSTALL_REFERRER_SERVICE
ADDED from [com.google.firebase:firebase-analytics-impl:15.0.0] C:\Users\Lenovo\.gradle\caches\transforms-1\files-1.1\firebase-analytics-impl-15.0.0.aar\be8b44e342253ef9b7e941d45e5a4453\AndroidManifest.xml:26:5-110
	android:name
		ADDED from [com.google.firebase:firebase-analytics-impl:15.0.0] C:\Users\Lenovo\.gradle\caches\transforms-1\files-1.1\firebase-analytics-impl-15.0.0.aar\be8b44e342253ef9b7e941d45e5a4453\AndroidManifest.xml:26:22-107
receiver#com.google.android.gms.measurement.AppMeasurementReceiver
ADDED from [com.google.firebase:firebase-analytics-impl:15.0.0] C:\Users\Lenovo\.gradle\caches\transforms-1\files-1.1\firebase-analytics-impl-15.0.0.aar\be8b44e342253ef9b7e941d45e5a4453\AndroidManifest.xml:29:9-33:20
	android:enabled
		ADDED from [com.google.firebase:firebase-analytics-impl:15.0.0] C:\Users\Lenovo\.gradle\caches\transforms-1\files-1.1\firebase-analytics-impl-15.0.0.aar\be8b44e342253ef9b7e941d45e5a4453\AndroidManifest.xml:31:13-35
	android:exported
		ADDED from [com.google.firebase:firebase-analytics-impl:15.0.0] C:\Users\Lenovo\.gradle\caches\transforms-1\files-1.1\firebase-analytics-impl-15.0.0.aar\be8b44e342253ef9b7e941d45e5a4453\AndroidManifest.xml:32:13-37
	android:name
		ADDED from [com.google.firebase:firebase-analytics-impl:15.0.0] C:\Users\Lenovo\.gradle\caches\transforms-1\files-1.1\firebase-analytics-impl-15.0.0.aar\be8b44e342253ef9b7e941d45e5a4453\AndroidManifest.xml:30:13-85
service#com.google.android.gms.measurement.AppMeasurementService
ADDED from [com.google.firebase:firebase-analytics-impl:15.0.0] C:\Users\Lenovo\.gradle\caches\transforms-1\files-1.1\firebase-analytics-impl-15.0.0.aar\be8b44e342253ef9b7e941d45e5a4453\AndroidManifest.xml:35:9-38:40
	android:enabled
		ADDED from [com.google.firebase:firebase-analytics-impl:15.0.0] C:\Users\Lenovo\.gradle\caches\transforms-1\files-1.1\firebase-analytics-impl-15.0.0.aar\be8b44e342253ef9b7e941d45e5a4453\AndroidManifest.xml:37:13-35
	android:exported
		ADDED from [com.google.firebase:firebase-analytics-impl:15.0.0] C:\Users\Lenovo\.gradle\caches\transforms-1\files-1.1\firebase-analytics-impl-15.0.0.aar\be8b44e342253ef9b7e941d45e5a4453\AndroidManifest.xml:38:13-37
	android:name
		ADDED from [com.google.firebase:firebase-analytics-impl:15.0.0] C:\Users\Lenovo\.gradle\caches\transforms-1\files-1.1\firebase-analytics-impl-15.0.0.aar\be8b44e342253ef9b7e941d45e5a4453\AndroidManifest.xml:36:13-84
uses-permission#com.google.android.c2dm.permission.RECEIVE
ADDED from [com.google.firebase:firebase-iid:15.0.0] C:\Users\Lenovo\.gradle\caches\transforms-1\files-1.1\firebase-iid-15.0.0.aar\4116caee5628817e271dc2644fb74ecd\AndroidManifest.xml:26:5-82
	android:name
		ADDED from [com.google.firebase:firebase-iid:15.0.0] C:\Users\Lenovo\.gradle\caches\transforms-1\files-1.1\firebase-iid-15.0.0.aar\4116caee5628817e271dc2644fb74ecd\AndroidManifest.xml:26:22-79
permission#${applicationId}.permission.C2D_MESSAGE
ADDED from [com.google.firebase:firebase-iid:15.0.0] C:\Users\Lenovo\.gradle\caches\transforms-1\files-1.1\firebase-iid-15.0.0.aar\4116caee5628817e271dc2644fb74ecd\AndroidManifest.xml:28:5-30:47
	android:protectionLevel
		ADDED from [com.google.firebase:firebase-iid:15.0.0] C:\Users\Lenovo\.gradle\caches\transforms-1\files-1.1\firebase-iid-15.0.0.aar\4116caee5628817e271dc2644fb74ecd\AndroidManifest.xml:30:9-44
	android:name
		ADDED from [com.google.firebase:firebase-iid:15.0.0] C:\Users\Lenovo\.gradle\caches\transforms-1\files-1.1\firebase-iid-15.0.0.aar\4116caee5628817e271dc2644fb74ecd\AndroidManifest.xml:29:9-63
permission#com.tcs.ionic.permission.C2D_MESSAGE
ADDED from [com.google.firebase:firebase-iid:15.0.0] C:\Users\Lenovo\.gradle\caches\transforms-1\files-1.1\firebase-iid-15.0.0.aar\4116caee5628817e271dc2644fb74ecd\AndroidManifest.xml:28:5-30:47
	android:protectionLevel
		ADDED from [com.google.firebase:firebase-iid:15.0.0] C:\Users\Lenovo\.gradle\caches\transforms-1\files-1.1\firebase-iid-15.0.0.aar\4116caee5628817e271dc2644fb74ecd\AndroidManifest.xml:30:9-44
	android:name
		ADDED from [com.google.firebase:firebase-iid:15.0.0] C:\Users\Lenovo\.gradle\caches\transforms-1\files-1.1\firebase-iid-15.0.0.aar\4116caee5628817e271dc2644fb74ecd\AndroidManifest.xml:29:9-63
uses-permission#${applicationId}.permission.C2D_MESSAGE
ADDED from [com.google.firebase:firebase-iid:15.0.0] C:\Users\Lenovo\.gradle\caches\transforms-1\files-1.1\firebase-iid-15.0.0.aar\4116caee5628817e271dc2644fb74ecd\AndroidManifest.xml:32:5-79
	android:name
		ADDED from [com.google.firebase:firebase-iid:15.0.0] C:\Users\Lenovo\.gradle\caches\transforms-1\files-1.1\firebase-iid-15.0.0.aar\4116caee5628817e271dc2644fb74ecd\AndroidManifest.xml:32:22-76
uses-permission#com.tcs.ionic.permission.C2D_MESSAGE
ADDED from [com.google.firebase:firebase-iid:15.0.0] C:\Users\Lenovo\.gradle\caches\transforms-1\files-1.1\firebase-iid-15.0.0.aar\4116caee5628817e271dc2644fb74ecd\AndroidManifest.xml:32:5-79
	android:name
		ADDED from [com.google.firebase:firebase-iid:15.0.0] C:\Users\Lenovo\.gradle\caches\transforms-1\files-1.1\firebase-iid-15.0.0.aar\4116caee5628817e271dc2644fb74ecd\AndroidManifest.xml:32:22-76
receiver#com.google.firebase.iid.FirebaseInstanceIdReceiver
ADDED from [com.google.firebase:firebase-iid:15.0.0] C:\Users\Lenovo\.gradle\caches\transforms-1\files-1.1\firebase-iid-15.0.0.aar\4116caee5628817e271dc2644fb74ecd\AndroidManifest.xml:35:9-44:20
	android:exported
		ADDED from [com.google.firebase:firebase-iid:15.0.0] C:\Users\Lenovo\.gradle\caches\transforms-1\files-1.1\firebase-iid-15.0.0.aar\4116caee5628817e271dc2644fb74ecd\AndroidManifest.xml:37:13-36
	android:permission
		ADDED from [com.google.firebase:firebase-iid:15.0.0] C:\Users\Lenovo\.gradle\caches\transforms-1\files-1.1\firebase-iid-15.0.0.aar\4116caee5628817e271dc2644fb74ecd\AndroidManifest.xml:38:13-73
	android:name
		ADDED from [com.google.firebase:firebase-iid:15.0.0] C:\Users\Lenovo\.gradle\caches\transforms-1\files-1.1\firebase-iid-15.0.0.aar\4116caee5628817e271dc2644fb74ecd\AndroidManifest.xml:36:13-78
intent-filter#action:name:com.google.android.c2dm.intent.RECEIVE+category:name:${applicationId}
ADDED from [com.google.firebase:firebase-iid:15.0.0] C:\Users\Lenovo\.gradle\caches\transforms-1\files-1.1\firebase-iid-15.0.0.aar\4116caee5628817e271dc2644fb74ecd\AndroidManifest.xml:39:13-43:29
intent-filter#action:name:com.google.android.c2dm.intent.RECEIVE+category:name:com.tcs.ionic
ADDED from [com.google.firebase:firebase-iid:15.0.0] C:\Users\Lenovo\.gradle\caches\transforms-1\files-1.1\firebase-iid-15.0.0.aar\4116caee5628817e271dc2644fb74ecd\AndroidManifest.xml:39:13-43:29
action#com.google.android.c2dm.intent.RECEIVE
ADDED from [com.google.firebase:firebase-iid:15.0.0] C:\Users\Lenovo\.gradle\caches\transforms-1\files-1.1\firebase-iid-15.0.0.aar\4116caee5628817e271dc2644fb74ecd\AndroidManifest.xml:40:17-81
	android:name
		ADDED from [com.google.firebase:firebase-iid:15.0.0] C:\Users\Lenovo\.gradle\caches\transforms-1\files-1.1\firebase-iid-15.0.0.aar\4116caee5628817e271dc2644fb74ecd\AndroidManifest.xml:40:25-78
category#${applicationId}
ADDED from [com.google.firebase:firebase-iid:15.0.0] C:\Users\Lenovo\.gradle\caches\transforms-1\files-1.1\firebase-iid-15.0.0.aar\4116caee5628817e271dc2644fb74ecd\AndroidManifest.xml:42:17-61
	android:name
		ADDED from [com.google.firebase:firebase-iid:15.0.0] C:\Users\Lenovo\.gradle\caches\transforms-1\files-1.1\firebase-iid-15.0.0.aar\4116caee5628817e271dc2644fb74ecd\AndroidManifest.xml:42:27-58
category#com.tcs.ionic
ADDED from [com.google.firebase:firebase-iid:15.0.0] C:\Users\Lenovo\.gradle\caches\transforms-1\files-1.1\firebase-iid-15.0.0.aar\4116caee5628817e271dc2644fb74ecd\AndroidManifest.xml:42:17-61
	android:name
		ADDED from [com.google.firebase:firebase-iid:15.0.0] C:\Users\Lenovo\.gradle\caches\transforms-1\files-1.1\firebase-iid-15.0.0.aar\4116caee5628817e271dc2644fb74ecd\AndroidManifest.xml:42:27-58
service#com.google.firebase.iid.FirebaseInstanceIdService
ADDED from [com.google.firebase:firebase-iid:15.0.0] C:\Users\Lenovo\.gradle\caches\transforms-1\files-1.1\firebase-iid-15.0.0.aar\4116caee5628817e271dc2644fb74ecd\AndroidManifest.xml:50:9-56:19
	android:exported
		ADDED from [com.google.firebase:firebase-iid:15.0.0] C:\Users\Lenovo\.gradle\caches\transforms-1\files-1.1\firebase-iid-15.0.0.aar\4116caee5628817e271dc2644fb74ecd\AndroidManifest.xml:52:13-36
	android:name
		ADDED from [com.google.firebase:firebase-iid:15.0.0] C:\Users\Lenovo\.gradle\caches\transforms-1\files-1.1\firebase-iid-15.0.0.aar\4116caee5628817e271dc2644fb74ecd\AndroidManifest.xml:51:13-77
provider#com.google.firebase.provider.FirebaseInitProvider
ADDED from [com.google.firebase:firebase-common:15.0.1] C:\Users\Lenovo\.gradle\caches\transforms-1\files-1.1\firebase-common-15.0.1.aar\f1652ff85af7aae577d8120aa79369b4\AndroidManifest.xml:8:9-12:39
	android:authorities
		ADDED from [com.google.firebase:firebase-common:15.0.1] C:\Users\Lenovo\.gradle\caches\transforms-1\files-1.1\firebase-common-15.0.1.aar\f1652ff85af7aae577d8120aa79369b4\AndroidManifest.xml:10:13-72
	android:exported
		ADDED from [com.google.firebase:firebase-common:15.0.1] C:\Users\Lenovo\.gradle\caches\transforms-1\files-1.1\firebase-common-15.0.1.aar\f1652ff85af7aae577d8120aa79369b4\AndroidManifest.xml:11:13-37
	android:initOrder
		ADDED from [com.google.firebase:firebase-common:15.0.1] C:\Users\Lenovo\.gradle\caches\transforms-1\files-1.1\firebase-common-15.0.1.aar\f1652ff85af7aae577d8120aa79369b4\AndroidManifest.xml:12:13-36
	android:name
		ADDED from [com.google.firebase:firebase-common:15.0.1] C:\Users\Lenovo\.gradle\caches\transforms-1\files-1.1\firebase-common-15.0.1.aar\f1652ff85af7aae577d8120aa79369b4\AndroidManifest.xml:9:13-77
uses-permission#com.sec.android.provider.badge.permission.READ
ADDED from [me.leolin:ShortcutBadger:1.1.17] C:\Users\Lenovo\.gradle\caches\transforms-1\files-1.1\ShortcutBadger-1.1.17.aar\c3224c1c400986009de1cb09c58fc57e\AndroidManifest.xml:19:5-86
	android:name
		ADDED from [me.leolin:ShortcutBadger:1.1.17] C:\Users\Lenovo\.gradle\caches\transforms-1\files-1.1\ShortcutBadger-1.1.17.aar\c3224c1c400986009de1cb09c58fc57e\AndroidManifest.xml:19:22-83
uses-permission#com.sec.android.provider.badge.permission.WRITE
ADDED from [me.leolin:ShortcutBadger:1.1.17] C:\Users\Lenovo\.gradle\caches\transforms-1\files-1.1\ShortcutBadger-1.1.17.aar\c3224c1c400986009de1cb09c58fc57e\AndroidManifest.xml:20:5-87
	android:name
		ADDED from [me.leolin:ShortcutBadger:1.1.17] C:\Users\Lenovo\.gradle\caches\transforms-1\files-1.1\ShortcutBadger-1.1.17.aar\c3224c1c400986009de1cb09c58fc57e\AndroidManifest.xml:20:22-84
uses-permission#com.htc.launcher.permission.READ_SETTINGS
ADDED from [me.leolin:ShortcutBadger:1.1.17] C:\Users\Lenovo\.gradle\caches\transforms-1\files-1.1\ShortcutBadger-1.1.17.aar\c3224c1c400986009de1cb09c58fc57e\AndroidManifest.xml:23:5-81
	android:name
		ADDED from [me.leolin:ShortcutBadger:1.1.17] C:\Users\Lenovo\.gradle\caches\transforms-1\files-1.1\ShortcutBadger-1.1.17.aar\c3224c1c400986009de1cb09c58fc57e\AndroidManifest.xml:23:22-78
uses-permission#com.htc.launcher.permission.UPDATE_SHORTCUT
ADDED from [me.leolin:ShortcutBadger:1.1.17] C:\Users\Lenovo\.gradle\caches\transforms-1\files-1.1\ShortcutBadger-1.1.17.aar\c3224c1c400986009de1cb09c58fc57e\AndroidManifest.xml:24:5-83
	android:name
		ADDED from [me.leolin:ShortcutBadger:1.1.17] C:\Users\Lenovo\.gradle\caches\transforms-1\files-1.1\ShortcutBadger-1.1.17.aar\c3224c1c400986009de1cb09c58fc57e\AndroidManifest.xml:24:22-80
uses-permission#com.sonyericsson.home.permission.BROADCAST_BADGE
ADDED from [me.leolin:ShortcutBadger:1.1.17] C:\Users\Lenovo\.gradle\caches\transforms-1\files-1.1\ShortcutBadger-1.1.17.aar\c3224c1c400986009de1cb09c58fc57e\AndroidManifest.xml:27:5-88
	android:name
		ADDED from [me.leolin:ShortcutBadger:1.1.17] C:\Users\Lenovo\.gradle\caches\transforms-1\files-1.1\ShortcutBadger-1.1.17.aar\c3224c1c400986009de1cb09c58fc57e\AndroidManifest.xml:27:22-85
uses-permission#com.sonymobile.home.permission.PROVIDER_INSERT_BADGE
ADDED from [me.leolin:ShortcutBadger:1.1.17] C:\Users\Lenovo\.gradle\caches\transforms-1\files-1.1\ShortcutBadger-1.1.17.aar\c3224c1c400986009de1cb09c58fc57e\AndroidManifest.xml:28:5-92
	android:name
		ADDED from [me.leolin:ShortcutBadger:1.1.17] C:\Users\Lenovo\.gradle\caches\transforms-1\files-1.1\ShortcutBadger-1.1.17.aar\c3224c1c400986009de1cb09c58fc57e\AndroidManifest.xml:28:22-89
uses-permission#com.anddoes.launcher.permission.UPDATE_COUNT
ADDED from [me.leolin:ShortcutBadger:1.1.17] C:\Users\Lenovo\.gradle\caches\transforms-1\files-1.1\ShortcutBadger-1.1.17.aar\c3224c1c400986009de1cb09c58fc57e\AndroidManifest.xml:31:5-84
	android:name
		ADDED from [me.leolin:ShortcutBadger:1.1.17] C:\Users\Lenovo\.gradle\caches\transforms-1\files-1.1\ShortcutBadger-1.1.17.aar\c3224c1c400986009de1cb09c58fc57e\AndroidManifest.xml:31:22-81
uses-permission#com.majeur.launcher.permission.UPDATE_BADGE
ADDED from [me.leolin:ShortcutBadger:1.1.17] C:\Users\Lenovo\.gradle\caches\transforms-1\files-1.1\ShortcutBadger-1.1.17.aar\c3224c1c400986009de1cb09c58fc57e\AndroidManifest.xml:34:5-83
	android:name
		ADDED from [me.leolin:ShortcutBadger:1.1.17] C:\Users\Lenovo\.gradle\caches\transforms-1\files-1.1\ShortcutBadger-1.1.17.aar\c3224c1c400986009de1cb09c58fc57e\AndroidManifest.xml:34:22-80
uses-permission#com.huawei.android.launcher.permission.CHANGE_BADGE
ADDED from [me.leolin:ShortcutBadger:1.1.17] C:\Users\Lenovo\.gradle\caches\transforms-1\files-1.1\ShortcutBadger-1.1.17.aar\c3224c1c400986009de1cb09c58fc57e\AndroidManifest.xml:37:5-91
	android:name
		ADDED from [me.leolin:ShortcutBadger:1.1.17] C:\Users\Lenovo\.gradle\caches\transforms-1\files-1.1\ShortcutBadger-1.1.17.aar\c3224c1c400986009de1cb09c58fc57e\AndroidManifest.xml:37:22-88
uses-permission#com.huawei.android.launcher.permission.READ_SETTINGS
ADDED from [me.leolin:ShortcutBadger:1.1.17] C:\Users\Lenovo\.gradle\caches\transforms-1\files-1.1\ShortcutBadger-1.1.17.aar\c3224c1c400986009de1cb09c58fc57e\AndroidManifest.xml:38:5-92
	android:name
		ADDED from [me.leolin:ShortcutBadger:1.1.17] C:\Users\Lenovo\.gradle\caches\transforms-1\files-1.1\ShortcutBadger-1.1.17.aar\c3224c1c400986009de1cb09c58fc57e\AndroidManifest.xml:38:22-89
uses-permission#com.huawei.android.launcher.permission.WRITE_SETTINGS
ADDED from [me.leolin:ShortcutBadger:1.1.17] C:\Users\Lenovo\.gradle\caches\transforms-1\files-1.1\ShortcutBadger-1.1.17.aar\c3224c1c400986009de1cb09c58fc57e\AndroidManifest.xml:39:5-93
	android:name
		ADDED from [me.leolin:ShortcutBadger:1.1.17] C:\Users\Lenovo\.gradle\caches\transforms-1\files-1.1\ShortcutBadger-1.1.17.aar\c3224c1c400986009de1cb09c58fc57e\AndroidManifest.xml:39:22-90
uses-permission#android.permission.READ_APP_BADGE
ADDED from [me.leolin:ShortcutBadger:1.1.17] C:\Users\Lenovo\.gradle\caches\transforms-1\files-1.1\ShortcutBadger-1.1.17.aar\c3224c1c400986009de1cb09c58fc57e\AndroidManifest.xml:42:5-73
	android:name
		ADDED from [me.leolin:ShortcutBadger:1.1.17] C:\Users\Lenovo\.gradle\caches\transforms-1\files-1.1\ShortcutBadger-1.1.17.aar\c3224c1c400986009de1cb09c58fc57e\AndroidManifest.xml:42:22-70
uses-permission#com.oppo.launcher.permission.READ_SETTINGS
ADDED from [me.leolin:ShortcutBadger:1.1.17] C:\Users\Lenovo\.gradle\caches\transforms-1\files-1.1\ShortcutBadger-1.1.17.aar\c3224c1c400986009de1cb09c58fc57e\AndroidManifest.xml:45:5-82
	android:name
		ADDED from [me.leolin:ShortcutBadger:1.1.17] C:\Users\Lenovo\.gradle\caches\transforms-1\files-1.1\ShortcutBadger-1.1.17.aar\c3224c1c400986009de1cb09c58fc57e\AndroidManifest.xml:45:22-79
uses-permission#com.oppo.launcher.permission.WRITE_SETTINGS
ADDED from [me.leolin:ShortcutBadger:1.1.17] C:\Users\Lenovo\.gradle\caches\transforms-1\files-1.1\ShortcutBadger-1.1.17.aar\c3224c1c400986009de1cb09c58fc57e\AndroidManifest.xml:46:5-83
	android:name
		ADDED from [me.leolin:ShortcutBadger:1.1.17] C:\Users\Lenovo\.gradle\caches\transforms-1\files-1.1\ShortcutBadger-1.1.17.aar\c3224c1c400986009de1cb09c58fc57e\AndroidManifest.xml:46:22-80
uses-permission#me.everything.badger.permission.BADGE_COUNT_READ
ADDED from [me.leolin:ShortcutBadger:1.1.17] C:\Users\Lenovo\.gradle\caches\transforms-1\files-1.1\ShortcutBadger-1.1.17.aar\c3224c1c400986009de1cb09c58fc57e\AndroidManifest.xml:49:5-88
	android:name
		ADDED from [me.leolin:ShortcutBadger:1.1.17] C:\Users\Lenovo\.gradle\caches\transforms-1\files-1.1\ShortcutBadger-1.1.17.aar\c3224c1c400986009de1cb09c58fc57e\AndroidManifest.xml:49:22-85
uses-permission#me.everything.badger.permission.BADGE_COUNT_WRITE
ADDED from [me.leolin:ShortcutBadger:1.1.17] C:\Users\Lenovo\.gradle\caches\transforms-1\files-1.1\ShortcutBadger-1.1.17.aar\c3224c1c400986009de1cb09c58fc57e\AndroidManifest.xml:50:5-89
	android:name
		ADDED from [me.leolin:ShortcutBadger:1.1.17] C:\Users\Lenovo\.gradle\caches\transforms-1\files-1.1\ShortcutBadger-1.1.17.aar\c3224c1c400986009de1cb09c58fc57e\AndroidManifest.xml:50:22-86
